[
    {
        "name": "pompe électrique",  
        "feature": [
            {"name":"débit","type":"float", "unit":"mètre cube"},
            {"name":"pression","type":"number", "unit":"bar"},
            {"name":"rendement hydraulique","type":"float", "unit":""},
            {"name":"hauteur d'aspiration","type":"float", "unit":""},
            {"name":"profondeur","type":"number", "unit":"mètre"}
        ],
        "gfx": {
            "color":"black",
            "icon":"pump.png"
        }
    },
    {
        "name": "pompe thermique",  
        "feature": [
            {"name":"débit","type":"float", "unit":"mètre cube"},
            {"name":"pression","type":"float", "unit":"bar"},
            {"name":"rendement hydraulique","type":"float", "unit":""},
            {"name":"hauteur d'aspiration","type":"float", "unit":""},
            {"name":"profondeur","type":"number", "unit":"mètre"}
        ],
        "gfx": {
            "color":"black",
            "icon":"pump.png"
        } 
    },
    {
        "name": "conduite enterrée",  
        "feature": [
            {"name":"matériau","type":"select", "unit":"mètre cube", "list":["alu","acier","PE"]},
            {"name":"diamètre intérieur","type":"float", "unit":"mètre"},
            {"name":"longueur","type":"number", "unit":"mètre"}
        ],
        "gfx": {
            "color":"green",
            "icon":"pipeline.png"
        }
    },
    {
        "name": "conduite en surface",  
        "feature": [
            {"name":"matériau","type":"select", "unit":"mètre cube", "list":["alu","acier","PE"]},
            {"name":"diamètre intérieur","type":"float", "unit":"mètre"},
            {"name":"longueur","type":"number", "unit":"mètre"}
        ],
        "gfx": {
            "color":"green",
            "icon":"pipeline.png"
        }
    },
    {
        "name": "enrouleur",  
        "feature": [
            {"name":"débit","type":"float", "unit":"mètre cube/heure"},
            {"name":"pression","type":"float", "unit":"bar"}
        ],
        "gfx": {
            "color":"#00a2ff",
            "icon":"water.png"
        }
    },
    {
        "name": "pivot",  
        "feature": [
            {"name":"débit","type":"float", "unit":"mètre cube/heure"},
            {"name":"pression d'entrée","type":"float", "unit":"bar"}
        ],
        "gfx": {
            "color":"#00a2ff",
            "icon":"water.png"
        }
    },
    {
        "name": "couverture intégrale",  
        "feature": [
            {"name":"débit","type":"float", "unit":"mètre cube/heure"},
            {"name":"pression","type":"float", "unit":"bar"},
            {"name":"matériau porte-rampe","type":"string"},
            {"name":"nb rampes","type":"number"},
            {"name":"nb asperseurs","type":"number"},
            {"name":"écartement rampes","type":"number"},
            {"name":"écartement asperseurs","type":"number"},
            {"name":"nb asperseurs simultanés","type":"number"}
        ],
        "gfx": {
            "color":"#00a2ff",
            "icon":"water.png"
        }
    },
    {
        "name": "goute-à-goute",  
        "feature": [
            {"name":"débit","type":"float", "unit":"mètre cube/heure"},
            {"name":"pression d'entrée","type":"float", "unit":"bar"}
        ],
        "gfx": {
            "color":"#00a2ff",
            "icon":"water.png"
        }
    }
]




